<svg width="46" height="46" viewBox="0 0 46 46" fill="none" xmlns="http://www.w3.org/2000/svg">
<g clip-path="url(#clip0)">
<path d="M28.7242 14.3828H26.8093V16.2977H28.7242V14.3828Z" fill="white"/>
<path d="M7.6598 14.3828H5.74487V16.2977H7.6598V14.3828Z" fill="white"/>
<path d="M27.0899 23.2814L15.6006 34.7706L16.9546 36.1247L28.4439 24.6354L27.0899 23.2814Z" fill="white"/>
<path d="M18.1923 28.7449C19.7786 28.7449 21.0647 27.4588 21.0647 25.8724C21.0647 24.286 19.7786 23 18.1923 23C16.6059 23 15.3198 24.286 15.3198 25.8724C15.3198 27.4588 16.6059 28.7449 18.1923 28.7449ZM18.1923 24.915C18.7211 24.915 19.1498 25.3437 19.1498 25.8725C19.1498 26.4013 18.7211 26.83 18.1923 26.83C17.6635 26.83 17.2347 26.4013 17.2347 25.8725C17.2347 25.3437 17.6635 24.915 18.1923 24.915Z" fill="white"/>
<path d="M25.8517 30.66C24.2653 30.66 22.9792 31.9461 22.9792 33.5325C22.9792 35.1189 24.2653 36.4049 25.8517 36.4049C27.4381 36.4049 28.7241 35.1189 28.7241 33.5325C28.7241 31.9461 27.4381 30.66 25.8517 30.66ZM25.8517 34.4899C25.3229 34.4899 24.8942 34.0612 24.8942 33.5324C24.8942 33.0036 25.3229 32.5749 25.8517 32.5749C26.3805 32.5749 26.8092 33.0036 26.8092 33.5324C26.8092 34.0613 26.3805 34.4899 25.8517 34.4899Z" fill="white"/>
<path d="M45.9589 29.4243L43.0865 19.8495C42.96 19.4309 42.5659 19.1511 42.129 19.1698H34.4692V13.4249C34.4692 12.3673 33.6118 11.51 32.5542 11.51H28.7243C28.7243 5.16443 23.5801 0.0202637 17.2346 0.0202637C10.889 0.0202637 5.74486 5.16443 5.74486 11.51H1.91492C0.857331 11.51 0 12.3673 0 13.425V43.1068C0 44.6932 1.28604 45.9792 2.87243 45.9792H31.5967C33.1831 45.9792 34.4692 44.6932 34.4692 43.1068V40.2344H42.129C42.5659 40.253 42.96 39.9733 43.0865 39.5546L45.9589 29.9798C46.0137 29.7987 46.0137 29.6054 45.9589 29.4243ZM17.2346 1.93528C22.5225 1.93528 26.8094 6.22202 26.8094 11.5101H7.65978C7.65978 6.22202 11.9466 1.93528 17.2346 1.93528ZM32.5542 43.1067C32.5542 43.6355 32.1255 44.0642 31.5967 44.0642H2.87243C2.34363 44.0642 1.91492 43.6355 1.91492 43.1067V13.425H32.5542V19.1699H10.5322C8.94583 19.1699 7.65978 20.4559 7.65978 22.0423V37.3619C7.65978 38.9483 8.94583 40.2344 10.5322 40.2344H32.5542V43.1067H32.5542ZM41.4204 38.3194H10.5322C10.0034 38.3194 9.57471 37.8907 9.57471 37.3619V22.0423C9.57471 21.5135 10.0034 21.0848 10.5322 21.0848H41.4204L44.044 29.7021L41.4204 38.3194Z" fill="white"/>
<path d="M42.1288 28.7449H40.2139V30.6598H42.1288V28.7449Z" fill="white"/>
</g>
<defs>
<clipPath id="clip0">
<rect width="46" height="46" fill="white"/>
</clipPath>
</defs>
</svg>
