<svg width="44" height="44" viewBox="0 0 44 44" fill="none" xmlns="http://www.w3.org/2000/svg">
<path d="M42.0665 18.7766H41.4223V16.8426V9.96763C41.4223 7.71676 39.5911 5.88552 37.3403 5.88552H19.639L7.69689 2.47346C7.69345 2.47252 7.68993 2.472 7.68649 2.47106C7.68297 2.47011 7.67962 2.46874 7.67609 2.46788C7.66888 2.46607 7.66174 2.46521 7.65461 2.46367C7.64352 2.46135 7.63244 2.45894 7.62135 2.45714C7.6113 2.4555 7.60142 2.45447 7.59136 2.45327C7.57967 2.45189 7.56807 2.45069 7.55647 2.45C7.54702 2.44949 7.53765 2.4494 7.5282 2.44923C7.51617 2.44906 7.50422 2.44897 7.49227 2.44949C7.48342 2.44983 7.47457 2.45069 7.46581 2.45138C7.45352 2.45241 7.44123 2.45353 7.42911 2.45533C7.42086 2.45653 7.4127 2.45808 7.40453 2.45954C7.39199 2.46178 7.37961 2.46418 7.36732 2.46719C7.35967 2.46908 7.3522 2.47123 7.34463 2.47338C7.33209 2.47699 7.31971 2.48068 7.30734 2.48498C7.30038 2.48747 7.2935 2.49014 7.28654 2.49289C7.27408 2.4977 7.2617 2.50277 7.24959 2.50835C7.24314 2.51136 7.23687 2.51463 7.23051 2.51781C7.21839 2.52391 7.20645 2.5301 7.19476 2.53706C7.18866 2.54058 7.18281 2.54436 7.1768 2.54814C7.16528 2.55536 7.15394 2.56275 7.14294 2.57075C7.13718 2.57487 7.1316 2.57934 7.12592 2.58372C7.11535 2.59189 7.10487 2.60022 7.09481 2.60907C7.08914 2.61406 7.08373 2.6193 7.07823 2.62446C7.06878 2.63339 7.05941 2.64233 7.05047 2.65178C7.04489 2.65771 7.03964 2.6639 7.03423 2.67009C7.02606 2.67946 7.01799 2.68891 7.01034 2.69879C7.00484 2.70592 6.99968 2.71323 6.99444 2.72053C6.98765 2.73007 6.98095 2.7397 6.97476 2.74958C6.96943 2.758 6.96453 2.76677 6.95964 2.77545C6.95422 2.78499 6.94881 2.79461 6.94391 2.80449C6.9391 2.81412 6.9348 2.824 6.93042 2.83389C6.92612 2.8436 6.92191 2.85331 6.91813 2.86328C6.91417 2.87376 6.91074 2.8845 6.90721 2.89533C6.90498 2.90229 6.90223 2.90882 6.90017 2.91587C6.89914 2.91939 6.89871 2.92283 6.89776 2.92627C6.89681 2.92979 6.89544 2.93314 6.89458 2.93667L6.15758 5.88535H4.08245C1.83614 5.88535 0.00807811 7.7092 0.000687499 9.95388C0.000601561 9.95852 0 9.9629 0 9.96746V32.3112C0 32.6669 0.289609 32.9557 0.64453 32.9557C1.00031 32.9557 1.28906 32.6669 1.28906 32.3112V12.9403C2.01987 13.6274 3.00248 14.0497 4.08245 14.0497H37.3403C37.3411 14.0497 37.3418 14.0497 37.3425 14.0497C38.8815 14.0509 40.1333 15.3033 40.1333 16.8427V21.3548H33.0424C33.042 21.3548 33.0416 21.3548 33.0412 21.3548C33.0225 21.3548 33.004 21.356 32.9855 21.3576C32.965 21.3594 32.9447 21.3623 32.9247 21.366C32.9217 21.3665 32.9188 21.3668 32.9158 21.3674C32.899 21.3707 32.8825 21.3752 32.866 21.3799C32.8624 21.3809 32.8587 21.3816 32.8552 21.3827C32.8406 21.3872 32.8264 21.3925 32.8123 21.3979C32.8068 21.4 32.8013 21.4017 32.7959 21.4039C32.7841 21.4088 32.7726 21.4146 32.7612 21.4202C32.7536 21.4238 32.746 21.4271 32.7386 21.431C32.7297 21.4357 32.7212 21.4411 32.7127 21.4463C32.7031 21.452 32.6934 21.4575 32.6841 21.4636C32.6778 21.4678 32.6721 21.4725 32.6661 21.4769C32.6551 21.4848 32.644 21.4926 32.6335 21.5013C32.6289 21.5051 32.6247 21.5093 32.6204 21.5131C32.6091 21.5229 32.5978 21.5326 32.5872 21.5433C32.5809 21.5496 32.5752 21.5565 32.5693 21.563C32.561 21.572 32.5524 21.5809 32.5445 21.5905C32.5312 21.6067 32.5187 21.6236 32.507 21.641C32.5067 21.6413 32.5065 21.6416 32.5063 21.642L29.069 26.7983C29.045 26.8342 29.0247 26.8723 29.0087 26.9119C29.0026 26.9267 28.9977 26.9417 28.9928 26.9567C28.9913 26.9612 28.9894 26.9656 28.988 26.9702C28.9832 26.9861 28.9795 27.0021 28.976 27.0181C28.9751 27.0223 28.9739 27.0264 28.973 27.0307C28.9702 27.0451 28.9683 27.0596 28.9665 27.0741C28.9657 27.0803 28.9645 27.0865 28.9639 27.0928C28.9627 27.1047 28.9624 27.1166 28.962 27.1285C28.9616 27.1376 28.9608 27.1468 28.9608 27.156C28.9608 27.1648 28.9616 27.1737 28.9619 27.1825C28.9623 27.1947 28.9627 27.207 28.9639 27.2192C28.9645 27.2251 28.9656 27.2311 28.9664 27.237C28.9683 27.2518 28.9702 27.2666 28.9731 27.2813C28.9739 27.2853 28.9751 27.2892 28.976 27.2933C28.9795 27.3094 28.9833 27.3256 28.9881 27.3417C28.9895 27.3462 28.9914 27.3506 28.9929 27.3552C28.9977 27.3702 29.0026 27.3852 29.0087 27.4C29.0249 27.4396 29.0452 27.4777 29.0692 27.5137L32.5065 32.6693C32.5067 32.6695 32.5068 32.6697 32.507 32.67C32.5208 32.6905 32.536 32.7101 32.5519 32.7289C32.5572 32.7351 32.5628 32.7409 32.5682 32.7467C32.5791 32.7586 32.5904 32.7702 32.6022 32.7812C32.6092 32.7878 32.6161 32.7941 32.6231 32.8002C32.6356 32.811 32.6486 32.821 32.6619 32.8308C32.668 32.8352 32.6737 32.84 32.6798 32.8441C32.6992 32.8573 32.7192 32.8694 32.7399 32.8804C32.7451 32.8832 32.7505 32.8855 32.7558 32.8881C32.7723 32.8963 32.7891 32.904 32.8064 32.9108C32.8131 32.9134 32.8198 32.9158 32.8266 32.9182C32.843 32.9241 32.8597 32.9292 32.8767 32.9338C32.8837 32.9356 32.8905 32.9375 32.8976 32.9392C32.915 32.9432 32.9327 32.9463 32.9507 32.9489C32.9572 32.9499 32.9637 32.9511 32.9702 32.9519C32.9924 32.9544 33.0149 32.9558 33.0378 32.956C33.0396 32.956 33.0414 32.9563 33.0433 32.9563C33.0436 32.9563 33.044 32.9562 33.0445 32.9562H40.1335V37.4686C40.1335 39.0088 38.8805 40.2617 37.3405 40.2617H4.0828C2.5428 40.2617 1.28983 39.0088 1.28983 37.4686C1.28983 37.4653 1.2894 37.462 1.28932 37.4586V34.8896C1.28932 34.5347 1.00057 34.2451 0.644788 34.2451C0.289867 34.2451 0.000257812 34.5347 0.000257812 34.8896V37.4686C0.000257812 37.4753 0.00103125 37.4818 0.00128906 37.4885C0.0120312 39.7302 1.83863 41.5508 4.0828 41.5508H37.3405C39.5912 41.5508 41.4222 39.7199 41.4226 37.4693C41.4226 37.4692 41.4226 37.4691 41.4226 37.469V32.9562H42.0668C43.1327 32.9562 44 32.0889 44 31.023V20.7098C43.9997 19.6438 43.1325 18.7766 42.0665 18.7766ZM7.98358 3.89598L19.3564 7.14553C19.357 7.14571 19.3576 7.14579 19.3581 7.14596L26.9804 9.32379H6.62697L7.98358 3.89598ZM40.1332 13.8697C39.4024 13.1827 38.42 12.7605 37.3403 12.7605C37.3392 12.7605 37.3381 12.7607 37.3369 12.7607H4.08245C2.54237 12.7607 1.2894 11.5077 1.2894 9.96763C1.2894 8.42755 2.54237 7.17458 4.08245 7.17458H5.8354L5.29829 9.32379H4.08262C3.72667 9.32379 3.4381 9.61236 3.4381 9.96832C3.4381 10.3243 3.72667 10.6128 4.08262 10.6128H5.79931C5.80017 10.6128 5.80111 10.613 5.80206 10.613C5.80275 10.613 5.80343 10.6128 5.80404 10.6128H31.5802C31.581 10.6128 31.5818 10.613 31.5826 10.613C31.5833 10.613 31.5839 10.6128 31.5846 10.6128H36.4801C36.8361 10.6128 37.1247 10.3243 37.1247 9.96832C37.1247 9.61236 36.8361 9.32379 36.4801 9.32379H31.6725L24.1505 7.17458H37.3402C38.8802 7.17458 40.1332 8.42755 40.1332 9.96763V13.8697ZM42.7107 31.0226C42.7107 31.3778 42.4217 31.6668 42.0665 31.6668H33.3873L30.3796 27.1556L33.3873 22.6437H42.0665C42.0755 22.6437 42.0843 22.6427 42.0932 22.6424C42.3094 22.6393 42.5171 22.6008 42.7107 22.5323V31.0226ZM42.0665 21.354C42.062 21.354 42.0576 21.3546 42.0532 21.3547H41.4223V20.0656H42.0665C42.4217 20.0656 42.7107 20.3546 42.7107 20.7098C42.7107 21.065 42.4217 21.354 42.0665 21.354Z" fill="white"/>
<path d="M35.6208 24.7922C34.3177 24.7922 33.2576 25.8524 33.2576 27.1556C33.2576 28.4588 34.3177 29.5189 35.6208 29.5189C36.924 29.5189 37.9841 28.4588 37.9841 27.1556C37.9841 25.8524 36.924 24.7922 35.6208 24.7922ZM35.6208 28.2298C35.0285 28.2298 34.5466 27.748 34.5466 27.1556C34.5466 26.5632 35.0285 26.0813 35.6208 26.0813C36.2132 26.0813 36.6951 26.5632 36.6951 27.1556C36.6951 27.748 36.2132 28.2298 35.6208 28.2298Z" fill="white"/>
</svg>
