<svg width="28" height="28" viewBox="0 0 28 28" fill="none" xmlns="http://www.w3.org/2000/svg">
<path d="M23.9166 7H18.0834C17.7614 7 17.5 6.7375 17.5 6.41665V0.583352C17.5 0.261352 17.2386 0 16.9166 0H5.25C4.28515 0 3.5 0.785148 3.5 1.75V26.25C3.5 27.2149 4.28515 28 5.25 28H22.75C23.7149 28 24.5 27.2149 24.5 26.25V7.58335C24.5 7.26135 24.2386 7 23.9166 7ZM23.3334 26.25C23.3334 26.5709 23.072 26.8334 22.75 26.8334H5.25C4.928 26.8334 4.66665 26.5709 4.66665 26.25V1.75C4.66665 1.42915 4.928 1.16665 5.25 1.16665H16.3334V6.41665C16.3334 7.3815 17.1185 8.16665 18.0834 8.16665H23.3334V26.25Z" fill="#F7B137"/>
<path d="M24.3295 7.17136L17.3295 0.171357C17.102 -0.0561426 16.7321 -0.0561426 16.5046 0.171357C16.2771 0.398857 16.2771 0.768709 16.5046 0.996209L23.5046 7.99621C23.619 8.10936 23.7683 8.16656 23.9176 8.16656C24.067 8.16656 24.2163 8.10941 24.3295 7.99621C24.557 7.76871 24.557 7.39886 24.3295 7.17136Z" fill="#F7B137"/>
</svg>
