<svg width="28" height="28" viewBox="0 0 28 28" fill="none" xmlns="http://www.w3.org/2000/svg">
<path d="M16.3633 27.0707L16.434 27.1414L16.5048 27.0707L27.0707 16.5048L27.1414 16.434L27.0707 16.3633L12.6877 1.98035L12.665 1.95764L12.6333 1.9524L6.27162 0.901338L6.22093 0.892963L6.18461 0.929289L0.929289 6.18461L0.892963 6.22093L0.901338 6.27162L1.9524 12.6333L1.95764 12.665L1.98035 12.6877L16.3633 27.0707ZM16.434 25.3096L3.19575 12.0714L2.32383 6.62185L6.67665 2.26902L12.0709 3.19531L25.3096 16.434L16.434 25.3096Z" fill="#F7B137" stroke="#F7B137" stroke-width="0.2"/>
<path d="M5.57551 9.31368L5.57539 9.31381L5.57979 9.31771C6.09228 9.77326 6.7236 10.0621 7.41644 10.0621C8.10615 10.0621 8.79561 9.77543 9.25736 9.31368L9.25748 9.31381L9.26139 9.30941C9.71694 8.79692 10.0058 8.1656 10.0058 7.47276C10.0058 6.78479 9.77561 6.15008 9.25736 5.63184L9.25748 5.63171L9.25309 5.62781C8.74059 5.17226 8.10927 4.8834 7.41644 4.8834C6.72847 4.8834 6.09376 5.11359 5.57551 5.63184C4.54071 6.66663 4.54071 8.27889 5.57551 9.31368ZM6.48752 6.4963C6.75227 6.28555 7.06131 6.13446 7.41644 6.13446C7.77663 6.13446 8.13558 6.28912 8.33761 6.48857C8.54835 6.75331 8.69941 7.06233 8.69941 7.41744C8.69941 7.78325 8.59599 8.08795 8.34147 8.34247C7.82733 8.85661 7.00554 8.85661 6.4914 8.34247C5.97856 7.82963 5.97727 7.01069 6.48752 6.4963Z" fill="#F7B137" stroke="#F7B137" stroke-width="0.2"/>
<path d="M20.2349 10.4077L20.3056 10.337L20.2349 10.2663L19.4525 9.48398L19.3818 9.41327L19.3111 9.48398L18.7244 10.0707L18.6537 10.1414L18.7244 10.2121L19.5067 10.9945L19.5774 11.0652L19.6481 10.9945L20.2349 10.4077Z" fill="#F7B137" stroke="#F7B137" stroke-width="0.2"/>
<path d="M12.0475 18.385L12.1182 18.4557L12.1889 18.385L13.4059 17.168L13.4767 17.0973L13.4059 17.0266L12.6315 16.2521L12.5608 16.1814L12.4901 16.2521L11.273 17.4691L11.2023 17.5398L11.273 17.6106L12.0475 18.385ZM14.5369 15.8957L14.6076 15.9664L14.6783 15.8957L15.8953 14.6786L15.966 14.6079L15.8953 14.5372L15.1208 13.7627L15.0501 13.692L14.9794 13.7627L13.7624 14.9798L13.6917 15.0505L13.7624 15.1212L14.5369 15.8957ZM17.0262 13.4616L17.0969 13.5323L17.1677 13.4616L18.3847 12.2446L18.4554 12.1739L18.3847 12.1032L17.6102 11.3287L17.5395 11.258L17.4688 11.3287L16.2518 12.5457L16.1811 12.6164L16.2518 12.6871L17.0262 13.4616Z" fill="#F7B137" stroke="#F7B137" stroke-width="0.2"/>
<path d="M10.9878 19.6206L11.0585 19.5499L10.9878 19.4792L10.2055 18.6969L10.1348 18.6262L10.0641 18.6969L9.47731 19.2836L9.4066 19.3543L9.47731 19.425L10.2596 20.2074L10.3303 20.2781L10.4011 20.2074L10.9878 19.6206Z" fill="#F7B137" stroke="#F7B137" stroke-width="0.2"/>
<path d="M18.7779 15.4828L18.7781 15.4827L18.7734 15.478C18.5583 15.2629 18.266 15.1559 17.9464 15.1863C17.6279 15.2167 17.2892 15.3824 16.9724 15.6992C16.657 16.0146 16.4901 16.3392 16.4595 16.6451C16.4287 16.9534 16.5376 17.2314 16.7511 17.4449C16.9661 17.6599 17.2584 17.767 17.5781 17.7365C17.8966 17.7062 18.2353 17.5404 18.5521 17.2236C18.8399 16.9358 19.0059 16.6259 19.0439 16.3217C19.0822 16.0153 18.9893 15.7244 18.7779 15.4828ZM17.1138 17.0822L17.1142 17.0818L17.1055 17.0748C17.0093 16.9978 16.9803 16.8801 17.0283 16.718C17.0772 16.553 17.2035 16.3594 17.3904 16.1726C17.5772 15.9857 17.7708 15.8594 17.9358 15.8105C18.0979 15.7625 18.2156 15.7915 18.2926 15.8877L18.2922 15.8881L18.3 15.896C18.4085 16.0045 18.4318 16.1303 18.3858 16.2799C18.3375 16.4369 18.2124 16.6167 18.0234 16.8056C17.8345 16.9945 17.6547 17.1197 17.4977 17.168C17.3482 17.214 17.2223 17.1907 17.1138 17.0822ZM15.4678 18.5501L15.3016 18.5954L15.4234 18.7172L15.7 18.9938L15.7411 19.0349L15.797 19.0196L20.6651 17.6919L20.8314 17.6466L20.7095 17.5248L20.4329 17.2482L20.3919 17.2071L20.3359 17.2224L15.4678 18.5501ZM19.4971 18.6913L19.4972 18.6912L19.4925 18.6865C19.2775 18.4714 18.9852 18.3644 18.6655 18.3949C18.347 18.4252 18.0083 18.5909 17.6915 18.9077C17.3761 19.2231 17.2093 19.5477 17.1787 19.8536C17.1478 20.1619 17.2568 20.4399 17.4702 20.6534C17.6814 20.8646 17.9578 20.9891 18.2743 20.966C18.5889 20.9429 18.9282 20.7752 19.2712 20.4321C19.5591 20.1443 19.725 19.8344 19.763 19.5302C19.8013 19.2238 19.7085 18.9329 19.4971 18.6913ZM17.8329 20.2907L17.8334 20.2903L17.8247 20.2833C17.7284 20.2063 17.6994 20.0886 17.7475 19.9265C17.7964 19.7615 17.9227 19.5679 18.1095 19.3811C18.2964 19.1942 18.4899 19.0679 18.655 19.019C18.8171 18.971 18.9348 19 19.0118 19.0962L19.0113 19.0966L19.0192 19.1045C19.1277 19.213 19.151 19.3389 19.1049 19.4884C19.0566 19.6454 18.9315 19.8252 18.7426 20.0141C18.5536 20.2031 18.3739 20.3282 18.2169 20.3765C18.0673 20.4225 17.9414 20.3992 17.8329 20.2907Z" fill="#F7B137" stroke="#F7B137" stroke-width="0.2"/>
</svg>
